<?xml version="1.0" encoding="UTF-8"?>
<!-- Created with Inkscape (http://www.inkscape.org/) -->
<svg width="36" height="36" version="1.1" viewBox="0 0 9.525 9.525" xmlns="http://www.w3.org/2000/svg">
 <g fill="#a69681">
  <path d="m3.3295 1.2924s-0.64558 5.2725 0.47945 6.3976c1.125 1.125 2.5709 0.32035 2.5709 0.32035v-1.1888s-0.84244 0.85874-1.7012 0 0-5.5854 0-5.5854z"/>
  <path d="m4.7958 2.8864 0.5657 0.093293 0.67078 0.072234s-0.10385 0.096863-0.22368 0.51633-0.11759 0.41792-0.11759 0.41792-0.28656-0.025726-0.47592-0.046079c-0.18936-0.020354-0.54864-0.015604-0.54864-0.015604s0.076808-0.2399 0.1021-0.55716c0.02529-0.31726 0.027244-0.48093 0.027244-0.48093z"/>
 </g>
</svg>
